<?xml version="1.0" encoding="utf-8"?>
<svg version="1.1" id="Layer_1" xmlns="http://www.w3.org/2000/svg" xmlns:xlink="http://www.w3.org/1999/xlink" x="0px" y="0px"
	 viewBox="0 0 30 20" style="enable-background:new 0 0 30 20;" xml:space="preserve">
	 <defs>
	 	<g id="main">
	 		<path d="M17.8,16c5.7,0,8.7-2.2,8.7-6s-3-6-8.7-6h-5.5c-5.7,0-8.7,2.2-8.7,6s3,6,8.7,6C12.2,16,17.8,16,17.8,16z"/>
		</g>
	</defs>
</svg>
